<?xml version="1.0" standalone="no"?>
<!DOCTYPE svg PUBLIC "-//W3C//DTD SVG 1.1//EN" "http://www.w3.org/Graphics/SVG/1.1/DTD/svg11.dtd">
<svg xmlns="http://www.w3.org/2000/svg">
<metadata>Copyright (C) 2017 by original authors @ fontello.com</metadata>
<defs>
<font id="fontello" horiz-adv-x="1000" >
<font-face font-family="fontello" font-weight="400" font-stretch="normal" units-per-em="1000" ascent="850" descent="-150" />
<missing-glyph horiz-adv-x="1000" />
<glyph glyph-name="vk" unicode="&#xe800;" d="M0 654q10 8 25 12 14 4 25 4l9 0q10 0 24-1 22-1 32-1 6 0 38 2 16 1 29 1t23-1q20-2 32-8 6-3 13-13t12-19 11-25 10-22q38-82 94-163 2-3 7-11t9-12 9-12 10-11 11-8 11-6 12 0q28 5 31 117 1 19 1 35 0 74-15 102-6 11-15 18t-25 12-23 10q14 28 50 37t96 9l53 0t26 0 27-3l22-6t20-9 12-14q9-18 11-42 0-7 1-14 0-20-3-52-4-42-4-52-3-23-3-46 0-18 2-38 4-44 30-61 9 1 17 4t15 11 11 12 13 16 10 14q47 62 94 163l9 23t12 26 12 20 15 13q16 7 38 7l9 0q20 0 46-2 32-2 47-2 9 0 28 1t32 2 30-1 25-6 14-13q3-6 3-13 0-29-35-87-17-29-34-52t-46-58-37-47q-2-2-14-18t-17-24-12-22-5-27q0-8 3-15t10-15 10-12 13-13 12-11q71-65 112-117 40-52 40-75 0-33-51-41-26-4-53-4-21 0-43 3-20 2-37 2-26 0-45-5l-6 0q-66 11-139 94-4 4-17 21t-22 25-23 17-27 6q-23-4-30-29t-9-59-10-49q-13-24-79-24-28 0-66 4-78 8-141 40t-101 68-81 92q-104 133-197 322-3 6-11 23t-12 25-9 24-8 28-3 26z" horiz-adv-x="1220" />

<glyph glyph-name="instagram" unicode="&#xf31e;" d="M749 849h-498c-138 0-249-111-249-248v-502c0-137 111-248 249-248h498c138 0 250 111 250 248v502c0 137-112 248-250 248z m157-750c0-86-70-156-157-156h-498c-87 0-157 70-157 156v324h197c-14-30-23-64-23-100 0-130 107-236 237-236 131 0 237 106 237 236 0 36-8 70-23 100h187v-324z m-499 224c0 54 44 98 98 98 54 0 98-44 98-98 0-54-44-98-98-98-54 0-98 44-98 98z m499 192h-264c-39 28-86 44-137 44-51 0-98-16-137-44h-274v86c0 86 70 156 157 156h498c87 0 157-70 157-156v-86h0z m-100 186h-85c-15 0-28-12-28-27v-86c0-15 13-27 28-27h85c16 0 28 12 28 27v86c0 15-12 27-28 27z" horiz-adv-x="1000" />
</font>
</defs>
</svg>